Name,varName,varType,units,use,varMin,p10,p50,p90,varMax,numberDecimals,std
dryMass,dryMass,numerical,,randomize,287.0,333.3,375.9,438.4,584.4,1,42.532036247361795
launchMass,launchMass,numerical,,randomize,534.4,1045.0,2511.3,5205.9,14462.5,1,1847.8874246880393
totalStayDays,totalStayDays,numerical,,randomize,0.7,0.8,1.0,1.5,2.0,1,0.29286293004713965
rdte_costCer_totalCost,rdte_costCer_totalCost,numerical,,randomize,16867.0,24128.3,32212.0,45802.2,93466.0,1,10559.54951718784
tfu_costCer_totalCost,tfu_costCer_totalCost,numerical,,randomize,7973.0,11959.8,15434.0,21959.3,47968.0,1,4568.051502076747
rd_per_kg,rd_per_kg,numerical,,randomize,46.6,65.0,83.8,118.0,232.1,1,26.227339048000676
tfu_per_kg,tfu_per_kg,numerical,,randomize,25.3,32.4,40.9,55.2,97.4,1,10.718443555176577
launchPrice,launchPrice,numerical,,randomize,7.0,8.1,10.1,14.8,20.0,1,2.683476296715705
deliveryQuantity,deliveryQuantity,numerical,,randomize,1.0,2.0,3.0,4.0,5.0,1,0.8152082952010268
totalCost_per_kg,totalCost_per_kg,numerical,,randomize,78.8,102.3,124.3,170.5,318.4,1,34.39766509737857
launchedMass,launchedMass,numerical,,randomize,534.4,1045.0,2511.3,5205.9,14462.5,1,1847.8874246880393
