Name,varName,varType,units,use,varMin,p10,p50,p90,varMax,numberDecimals,categorical
# Any row in this sheet will be disregaurded as long as the Name variable begins with a "#"
Produced Material per Delivery,deliveryQuantity,numerical,kg,varMin,1,1,1,1,11100,0,
Number of Round Trips,roundTrips,numerical,trips,varMin,1,1,1,1,1,0
Commercialization Factor,commercialization,numerical,none,randomize,4,5,6,7,8,1